Three_Phase_Power_Analyzer/simulation/qsim/Top.msim.vcd
$comment
	File created using the following command:
		vcd file Top.msim.vcd -direction
$end
$date
	Sat Jan 11 16:55:23 2020
$end
$version
	ModelSim Version 10.5b
$end
$timescale
	1ps
$end

$scope module Sines_vlg_vec_tst $end
$var reg 1 ! clk $end
$var wire 1 " Sine [7] $end
$var wire 1 # Sine [6] $end
$var wire 1 $ Sine [5] $end
$var wire 1 % Sine [4] $end
$var wire 1 & Sine [3] $end
$var wire 1 ' Sine [2] $end
$var wire 1 ( Sine [1] $end
$var wire 1 ) Sine [0] $end
$var wire 1 * Zero_Harmonic $end

$scope module i1 $end
$var wire 1 + gnd $end
$var wire 1 , vcc $end
$var wire 1 - unknown $end
$var tri1 1 . devclrn $end
$var tri1 1 / devpor $end
$var tri1 1 0 devoe $end
$var wire 1 1 Sine[0]~output_o $end
$var wire 1 2 Sine[1]~output_o $end
$var wire 1 3 Sine[2]~output_o $end
$var wire 1 4 Sine[3]~output_o $end
$var wire 1 5 Sine[4]~output_o $end
$var wire 1 6 Sine[5]~output_o $end
$var wire 1 7 Sine[6]~output_o $end
$var wire 1 8 Sine[7]~output_o $end
$var wire 1 9 Zero_Harmonic~output_o $end
$var wire 1 : clk~input_o $end
$var wire 1 ; clk~inputclkctrl_outclk $end
$var wire 1 < Add0~1 $end
$var wire 1 = Add0~2_combout $end
$var wire 1 > counter_200~0_combout $end
$var wire 1 ? Add0~3 $end
$var wire 1 @ Add0~4_combout $end
$var wire 1 A Add0~5 $end
$var wire 1 B Add0~6_combout $end
$var wire 1 C counter_200~3_combout $end
$var wire 1 D Add0~7 $end
$var wire 1 E Add0~8_combout $end
$var wire 1 F counter_200~2_combout $end
$var wire 1 G Add0~9 $end
$var wire 1 H Add0~10_combout $end
$var wire 1 I counter_200~4_combout $end
$var wire 1 J Add0~11 $end
$var wire 1 K Add0~12_combout $end
$var wire 1 L counter_200~5_combout $end
$var wire 1 M Equal0~0_combout $end
$var wire 1 N Add0~0_combout $end
$var wire 1 O counter_200~1_combout $end
$var wire 1 P Equal0~1_combout $end
$var wire 1 Q Add0~13 $end
$var wire 1 R Add0~14_combout $end
$var wire 1 S counter_200~6_combout $end
$var wire 1 T LessThan0~0_combout $end
$var wire 1 U LessThan0~1_combout $end
$var wire 1 V Zero_Harmonic~reg0_q $end
$var wire 1 W counter_200 [7] $end
$var wire 1 X counter_200 [6] $end
$var wire 1 Y counter_200 [5] $end
$var wire 1 Z counter_200 [4] $end
$var wire 1 [ counter_200 [3] $end
$var wire 1 \ counter_200 [2] $end
$var wire 1 ] counter_200 [1] $end
$var wire 1 ^ counter_200 [0] $end
$upscope $end
$upscope $end
$enddefinitions $end
#0
$dumpvars
0!
0)
0(
0'
0&
0%
0$
0#
0"
0*
0+
1,
x-
1.
1/
10
01
02
03
04
05
06
07
08
09
0:
0;
0<
0=
0>
1?
0@
0A
0B
0C
1D
0E
0F
0G
0H
0I
1J
0K
0L
0M
1N
1O
0P
0Q
0R
0S
1T
0U
0V
0^
0]
0\
0[
0Z
0Y
0X
0W
$end
#10000
1!
1:
1;
1^
1<
0N
1=
0O
1>
#20000
0!
0:
0;
#30000
1!
1:
1;
0^
1]
0<
1N
0?
0=
1?
1=
1O
1@
0>
0@
1>
#40000
0!
0:
0;
#50000
1!
1:
1;
1^
1<
0N
0?
0=
0O
1@
0>
#60000
0!
0:
0;
#70000
1!
1:
1;
0^
1\
0]
0<
1N
1A
1?
1=
0@
0=
1B
0A
1O
1@
1>
0B
0>
1C
0C
#80000
0!
0:
0;
#90000
1!
1:
1;
1^
0T
1<
0N
1=
0O
1>
#100000
0!
0:
0;
#110000
1!
1:
1;
0^
1]
0<
1N
0?
0=
1?
1=
1A
1O
0@
0>
0A
1B
1@
1>
0B
1C
0C
#120000
0!
0:
0;
#130000
1!
1:
1;
1^
1<
0N
0?
0=
0O
1A
0@
0>
1B
1C
#140000
0!
0:
0;
#150000
1!
1:
1;
0^
1[
0\
0]
1T
0<
1N
0D
0B
0A
1?
1=
1@
0=
1E
1D
1B
1O
0C
0@
1>
0E
0>
1F
1C
0F
#160000
0!
0:
0;
#170000
1!
1:
1;
1^
1<
0N
1=
0O
1>
#180000
0!
0:
0;
#190000
1!
1:
1;
0^
1]
0<
1N
0?
0=
1?
1=
1O
1@
0>
0@
1>
#200000
0!
0:
0;
#210000
1!
1:
1;
1^
1<
0N
0?
0=
0O
1@
0>
#220000
0!
0:
0;
#230000
1!
1:
1;
0^
1\
0]
0<
1N
1A
1?
1=
0@
0=
0D
0B
0A
1O
1@
1>
1E
1D
1B
0>
0C
0E
1F
1C
0F
#240000
0!
0:
0;
#250000
1!
1:
1;
1^
0T
1<
0N
1=
0O
1>
#260000
0!
0:
0;
#270000
1!
1:
1;
0^
1]
0<
1N
0?
0=
1?
1=
1A
1O
0@
0>
0A
0D
0B
1@
1>
1D
1B
1E
0C
0E
1C
1F
0F
#280000
0!
0:
0;
#290000
1!
1:
1;
1^
1<
0N
0?
0=
0O
1A
0@
0>
0D
0B
1E
0C
1F
#300000
0!
0:
0;
#310000
1!
1:
1;
0^
1Z
0[
0\
0]
1T
0<
1N
1G
0E
1D
1B
0A
1?
1=
1@
0=
1H
0G
1E
0B
1O
0F
1C
0@
1>
0H
0>
1I
1F
0C
0I
#320000
0!
0:
0;
#330000
1!
1:
1;
1^
1<
0N
1=
0O
1>
#340000
0!
0:
0;
#350000
1!
1:
1;
0^
1]
0<
1N
0?
0=
1?
1=
1O
1@
0>
0@
1>
#360000
0!
0:
0;
#370000
1!
1:
1;
1^
1<
0N
0?
0=
0O
1@
0>
#380000
0!
0:
0;
#390000
1!
1:
1;
0^
1\
0]
0<
1N
1A
1?
1=
0@
0=
1B
0A
1O
1@
1>
0B
0>
1C
0C
#400000
0!
0:
0;
#410000
1!
1:
1;
1^
0T
1<
0N
1=
0O
1>
#420000
0!
0:
0;
#430000
1!
1:
1;
0^
1]
0<
1N
0?
0=
1?
1=
1A
1O
0@
0>
0A
1B
1@
1>
0B
1C
0C
#440000
0!
0:
0;
#450000
1!
1:
1;
1^
1<
0N
0?
0=
0O
1A
0@
0>
1B
1C
#460000
0!
0:
0;
#470000
1!
1:
1;
0^
1[
0\
0]
1T
0<
1N
0D
0B
0A
1?
1=
1@
0=
1G
0E
1D
1B
1O
0C
0@
1>
1H
0G
1E
0>
0F
1C
0H
1I
1F
0I
#480000
0!
0:
0;
#490000
1!
1:
1;
1^
1<
0N
1=
0O
1>
#500000
0!
0:
0;
#510000
1!
1:
1;
0^
1]
0<
1N
0?
0=
1?
1=
1O
1@
0>
0@
1>
#520000
0!
0:
0;
#530000
1!
1:
1;
1^
1<
0N
0?
0=
0O
1@
0>
#540000
0!
0:
0;
#550000
1!
1:
1;
0^
1\
0]
0<
1N
1A
1?
1=
0@
0=
0D
0B
0A
1O
1@
1>
1G
0E
1D
1B
0>
0C
1H
0G
1E
0F
1C
0H
1I
1F
0I
#560000
0!
0:
0;
#570000
1!
1:
1;
1^
0T
1<
0N
1=
0O
1>
#580000
0!
0:
0;
#590000
1!
1:
1;
0^
1]
0<
1N
0?
0=
1?
1=
1A
1O
0@
0>
0A
0D
0B
1@
1>
1D
1B
1G
0E
0C
0G
1E
1H
1C
0F
0H
1F
1I
0I
#600000
0!
0:
0;
#610000
1!
1:
1;
1^
1<
0N
0?
0=
0O
1A
0@
0>
0D
0B
1G
0E
0C
1H
0F
1I
#620000
0!
0:
0;
#630000
1!
1:
1;
0^
1Y
0Z
0[
0\
0]
1T
0<
1N
0J
0H
0G
1E
1D
1B
0A
1?
1=
1@
0=
1K
1J
1H
0E
0B
1O
0I
1F
1C
0@
1>
0K
0>
1L
1I
0F
0C
0L
#640000
0!
0:
0;
#650000
1!
1:
1;
1^
1<
0N
1=
0O
1>
#660000
0!
0:
0;
#670000
1!
1:
1;
0^
1]
0<
1N
0?
0=
1?
1=
1O
1@
0>
0@
1>
#680000
0!
0:
0;
#690000
1!
1:
1;
1^
1<
0N
0?
0=
0O
1@
0>
#700000
0!
0:
0;
#710000
1!
1:
1;
0^
1\
0]
0<
1N
1A
1?
1=
0@
0=
1B
0A
1O
1@
1>
0B
0>
1C
0C
#720000
0!
0:
0;
#730000
1!
1:
1;
1^
0T
1<
0N
1=
0O
1>
#740000
0!
0:
0;
#750000
1!
1:
1;
0^
1]
0<
1N
0?
0=
1?
1=
1A
1O
0@
0>
0A
1B
1@
1>
0B
1C
0C
#760000
0!
0:
0;
#770000
1!
1:
1;
1^
1<
0N
0?
0=
0O
1A
0@
0>
1B
1C
#780000
0!
0:
0;
#790000
1!
1:
1;
0^
1[
0\
0]
1T
0<
1N
0D
0B
0A
1?
1=
1@
0=
1E
1D
1B
1O
0C
0@
1>
0E
0>
1F
1C
0F
#800000
0!
0:
0;
#810000
1!
1:
1;
1^
1<
0N
1=
0O
1>
#820000
0!
0:
0;
#830000
1!
1:
1;
0^
1]
0<
1N
0?
0=
1?
1=
1O
1@
0>
0@
1>
#840000
0!
0:
0;
#850000
1!
1:
1;
1^
1<
0N
0?
0=
0O
1@
0>
#860000
0!
0:
0;
#870000
1!
1:
1;
0^
1\
0]
0<
1N
1A
1?
1=
0@
0=
0D
0B
0A
1O
1@
1>
1E
1D
1B
0>
0C
0E
1F
1C
0F
#880000
0!
0:
0;
#890000
1!
1:
1;
1^
0T
1<
0N
1=
0O
1>
#900000
0!
0:
0;
#910000
1!
1:
1;
0^
1]
0<
1N
0?
0=
1?
1=
1A
1O
0@
0>
0A
0D
0B
1@
1>
1D
1B
1E
0C
0E
1C
1F
0F
#920000
0!
0:
0;
#930000
1!
1:
1;
1^
1<
0N
0?
0=
0O
1A
0@
0>
0D
0B
1E
0C
1F
#940000
0!
0:
0;
#950000
1!
1:
1;
0^
1Z
0[
0\
0]
1T
0<
1N
1G
0E
1D
1B
0A
1?
1=
1@
0=
0J
0H
0G
1E
0B
1O
0F
1C
0@
1>
1K
1J
1H
0>
0I
1F
0C
0K
1L
1I
0L
#960000
0!
0:
0;
#970000
1!
1:
1;
1^
1<
0N
1=
0O
1>
#980000
0!
0:
0;
#990000
1!
1:
1;
0^
1]
0<
1N
0?
0=
1?
1=
1O
1@
0>
0@
1>
#1000000
0!
0:
0;
#1010000
1!
1:
1;
1^
1<
0N
0?
0=
0O
1@
0>
#1020000
0!
0:
0;
#1030000
1!
1:
1;
0^
1\
0]
0<
1N
1A
1?
1=
0@
0=
1B
0A
1O
1@
1>
0B
0>
1C
0C
#1040000
0!
0:
0;
#1050000
1!
1:
1;
1^
0T
1<
0N
1=
0O
1>
#1060000
0!
0:
0;
#1070000
1!
1:
1;
0^
1]
0<
1N
0?
0=
1?
1=
1A
1O
0@
0>
0A
1B
1@
1>
0B
1C
0C
#1080000
0!
0:
0;
#1090000
1!
1:
1;
1^
1<
0N
0?
0=
0O
1A
0@
0>
1B
1C
#1100000
0!
0:
0;
#1110000
1!
1:
1;
0^
1[
0\
0]
1T
0<
1N
0D
0B
0A
1?
1=
1@
0=
1G
0E
1D
1B
1O
0C
0@
1>
0J
0H
0G
1E
0>
0F
1C
1K
1J
1H
0I
1F
0K
1L
1I
0L
#1120000
0!
0:
0;
#1130000
1!
1:
1;
1^
1<
0N
1=
0O
1>
#1140000
0!
0:
0;
#1150000
1!
1:
1;
0^
1]
0<
1N
0?
0=
1?
1=
1O
1@
0>
0@
1>
#1160000
0!
0:
0;
#1170000
1!
1:
1;
1^
1<
0N
0?
0=
0O
1@
0>
#1180000
0!
0:
0;
#1190000
1!
1:
1;
0^
1\
0]
0<
1N
1A
1?
1=
0@
0=
0D
0B
0A
1O
1@
1>
1G
0E
1D
1B
0>
0C
0J
0H
0G
1E
0F
1C
1K
1J
1H
0I
1F
0K
1L
1I
0L
#1200000
0!
0:
0;
#1210000
1!
1:
1;
1^
0T
1<
0N
1=
0O
1>
#1220000
0!
0:
0;
#1230000
1!
1:
1;
0^
1]
0<
1N
0?
0=
1?
1=
1A
1O
0@
0>
0A
0D
0B
1@
1>
1D
1B
1G
0E
0C
0G
1E
0J
0H
1C
0F
1J
1H
1K
1F
0I
0K
1I
1L
0L
#1240000
0!
0:
0;
#1250000
1!
1:
1;
1^
1<
0N
0?
0=
0O
1A
0@
0>
0D
0B
1G
0E
0C
0J
0H
0F
1K
0I
1L
#1260000
0!
0:
0;
#1270000
1!
1:
1;
0^
1X
0Y
0Z
0[
0\
0]
1T
0<
1N
1Q
0K
1J
1H
0G
1E
1D
1B
0A
1?
1=
1@
0=
1R
0Q
1K
0H
0E
0B
1O
0L
1I
1F
1C
0@
1>
0R
0>
1S
1L
0I
0F
0C
0S
#1280000
0!
0:
0;
#1290000
1!
1:
1;
1^
1<
0N
1=
0O
1>
#1300000
0!
0:
0;
#1310000
1!
1:
1;
0^
1]
0<
1N
0?
0=
1?
1=
1O
1@
0>
0@
1>
#1320000
0!
0:
0;
#1330000
1!
1:
1;
1^
1<
0N
0?
0=
0O
1@
0>
#1340000
0!
0:
0;
#1350000
1!
1:
1;
0^
1\
0]
0<
1N
1A
1?
1=
0@
0=
1B
0A
1O
1@
1>
0B
0>
1C
0C
#1360000
0!
0:
0;
#1370000
1!
1:
1;
1^
0T
1<
0N
1=
0O
1>
#1380000
0!
0:
0;
#1390000
1!
1:
1;
0^
1]
0<
1N
0?
0=
1?
1=
1A
1O
0@
0>
0A
1B
1@
1>
0B
1C
0C
#1400000
0!
0:
0;
#1410000
1!
1:
1;
1^
1<
0N
0?
0=
0O
1A
0@
0>
1B
1C
#1420000
0!
0:
0;
#1430000
1!
1:
1;
0^
1[
0\
0]
1T
0<
1N
0D
0B
0A
1?
1=
1@
0=
1E
1D
1B
1O
0C
0@
1>
0E
0>
1F
1C
0F
#1440000
0!
0:
0;
#1450000
1!
1:
1;
1^
1<
0N
1=
0O
1>
#1460000
0!
0:
0;
#1470000
1!
1:
1;
0^
1]
0<
1N
0?
0=
1?
1=
1O
1@
0>
0@
1>
#1480000
0!
0:
0;
#1490000
1!
1:
1;
1^
1<
0N
0?
0=
0O
1@
0>
#1500000
0!
0:
0;
#1510000
1!
1:
1;
0^
1\
0]
0<
1N
1A
1?
1=
0@
0=
0D
0B
0A
1O
1@
1>
1E
1D
1B
0>
0C
0E
1F
1C
0F
#1520000
0!
0:
0;
#1530000
1!
1:
1;
1^
0T
1<
0N
1=
0O
1>
#1540000
0!
0:
0;
#1550000
1!
1:
1;
0^
1]
0<
1N
0?
0=
1?
1=
1A
1O
0@
0>
0A
0D
0B
1@
1>
1D
1B
1E
0C
0E
1C
1F
0F
#1560000
0!
0:
0;
#1570000
1!
1:
1;
1^
1<
0N
0?
0=
0O
1A
0@
0>
0D
0B
1E
0C
1F
#1580000
0!
0:
0;
#1590000
1!
1:
1;
0^
1Z
0[
0\
0]
1T
0<
1N
1G
0E
1D
1B
0A
1?
1=
1@
0=
1H
0G
1E
0B
1O
0F
1C
0@
1>
0H
0>
1I
1F
0C
0I
#1600000
0!
0:
0;
#1610000
1!
1:
1;
1^
1<
0N
1=
0O
1>
#1620000
0!
0:
0;
#1630000
1!
1:
1;
0^
1]
0<
1N
0?
0=
1?
1=
1O
1@
0>
0@
1>
#1640000
0!
0:
0;
#1650000
1!
1:
1;
1^
1<
0N
0?
0=
0O
1@
0>
#1660000
0!
0:
0;
#1670000
1!
1:
1;
0^
1\
0]
0<
1N
1A
1?
1=
0@
0=
1B
0A
1O
1@
1>
0B
0>
1C
0C
#1680000
0!
0:
0;
#1690000
1!
1:
1;
1^
0T
1<
0N
1=
0O
1>
#1700000
0!
0:
0;
#1710000
1!
1:
1;
0^
1]
0<
1N
0?
0=
1?
1=
1A
1O
0@
0>
0A
1B
1@
1>
0B
1C
0C
#1720000
0!
0:
0;
#1730000
1!
1:
1;
1^
1<
0N
0?
0=
0O
1A
0@
0>
1B
1C
#1740000
0!
0:
0;
#1750000
1!
1:
1;
0^
1[
0\
0]
1T
0<
1N
0D
0B
0A
1?
1=
1@
0=
1G
0E
1D
1B
1O
0C
0@
1>
1H
0G
1E
0>
0F
1C
0H
1I
1F
0I
#1760000
0!
0:
0;
#1770000
1!
1:
1;
1^
1<
0N
1=
0O
1>
#1780000
0!
0:
0;
#1790000
1!
1:
1;
0^
1]
0<
1N
0?
0=
1?
1=
1O
1@
0>
0@
1>
#1800000
0!
0:
0;
#1810000
1!
1:
1;
1^
1<
0N
0?
0=
0O
1@
0>
#1820000
0!
0:
0;
#1830000
1!
1:
1;
0^
1\
0]
0<
1N
1A
1?
1=
0@
0=
0D
0B
0A
1O
1@
1>
1G
0E
1D
1B
0>
0C
1H
0G
1E
0F
1C
0H
1I
1F
0I
#1840000
0!
0:
0;
#1850000
1!
1:
1;
1^
0T
1<
0N
1=
0O
1>
#1860000
0!
0:
0;
#1870000
1!
1:
1;
0^
1]
0<
1N
0?
0=
1?
1=
1A
1O
0@
0>
0A
0D
0B
1@
1>
1D
1B
1G
0E
0C
0G
1E
1H
1C
0F
0H
1F
1I
0I
#1880000
0!
0:
0;
#1890000
1!
1:
1;
1^
1<
0N
0?
0=
0O
1A
0@
0>
0D
0B
1G
0E
0C
1H
0F
1I
#1900000
0!
0:
0;
#1910000
1!
1:
1;
0^
1Y
0Z
0[
0\
0]
1T
0<
1N
0J
0H
0G
1E
1D
1B
0A
1?
1=
1@
0=
1Q
0K
1J
1H
0E
0B
1O
0I
1F
1C
0@
1>
1R
0Q
1K
0>
0L
1I
0F
0C
0R
1S
1L
0S
#1920000
0!
0:
0;
#1930000
1!
1:
1;
1^
1<
0N
1=
0O
1>
#1940000
0!
0:
0;
#1950000
1!
1:
1;
0^
1]
0<
1N
0?
0=
1?
1=
1O
1@
0>
0@
1>
#1960000
0!
0:
0;
#1970000
1!
1:
1;
1^
1<
0N
0?
0=
0O
1@
0>
#1980000
0!
0:
0;
#1990000
1!
1:
1;
0^
1\
0]
0<
1N
1A
1?
1=
0@
0=
1B
0A
1O
1@
1>
0B
0>
1C
0C
#2000000
0!
0:
0;
#2010000
1!
1:
1;
1^
0T
1<
0N
1=
0O
1>
#2020000
0!
0:
0;
#2030000
1!
1:
1;
0^
1]
0<
1N
0?
0=
1?
1=
1A
1O
0@
0>
0A
1B
1@
1>
0B
1C
0C
#2040000
0!
0:
0;
#2050000
1!
1:
1;
1^
1<
0N
0?
0=
0O
1A
0@
0>
1B
1C
#2060000
0!
0:
0;
#2070000
1!
1:
1;
0^
1[
0\
0]
1T
0<
1N
0D
0B
0A
1?
1=
1@
0=
1E
1D
1B
1O
0C
0@
1>
0E
0>
1F
1C
0F
#2080000
0!
0:
0;
#2090000
1!
1:
1;
1^
1<
0N
1=
0O
1>
#2100000
0!
0:
0;
#2110000
1!
1:
1;
0^
1]
0<
1N
0?
0=
1?
1=
1O
1@
0>
0@
1>
#2120000
0!
0:
0;
#2130000
1!
1:
1;
1^
1<
0N
0?
0=
0O
1@
0>
#2140000
0!
0:
0;
#2150000
1!
1:
1;
0^
1\
0]
0<
1N
1A
1?
1=
0@
0=
0D
0B
0A
1O
1@
1>
1E
1D
1B
0>
0C
0E
1F
1C
0F
#2160000
0!
0:
0;
#2170000
1!
1:
1;
1^
0T
1<
0N
1=
0O
1>
#2180000
0!
0:
0;
#2190000
1!
1:
1;
0^
1]
0<
1N
0?
0=
1?
1=
1A
1O
0@
0>
0A
0D
0B
1@
1>
1D
1B
1E
0C
0E
1C
1F
0F
#2200000
0!
0:
0;
#2210000
1!
1:
1;
1^
1<
0N
0?
0=
0O
1A
0@
0>
0D
0B
1E
0C
1F
#2220000
0!
0:
0;
#2230000
1!
1:
1;
0^
1Z
0[
0\
0]
1T
0<
1N
1G
0E
1D
1B
0A
1?
1=
1@
0=
0J
0H
0G
1E
0B
1O
0F
1C
0@
1>
1Q
0K
1J
1H
0>
0I
1F
0C
1R
0Q
1K
0L
1I
0R
1S
1L
0S
#2240000
0!
0:
0;
#2250000
1!
1:
1;
1^
1<
0N
1=
0O
1>
#2260000
0!
0:
0;
#2270000
1!
1:
1;
0^
1]
0<
1N
0?
0=
1?
1=
1O
1@
0>
0@
1>
#2280000
0!
0:
0;
#2290000
1!
1:
1;
1^
1<
0N
0?
0=
0O
1@
0>
#2300000
0!
0:
0;
#2310000
1!
1:
1;
0^
1\
0]
0<
1N
1A
1?
1=
0@
0=
1B
0A
1O
1@
1>
0B
0>
1C
0C
#2320000
0!
0:
0;
#2330000
1!
1:
1;
1^
0T
1<
0N
1=
0O
1>
#2340000
0!
0:
0;
#2350000
1!
1:
1;
0^
1]
0<
1N
0?
0=
1?
1=
1A
1O
0@
0>
0A
1B
1@
1>
0B
1C
0C
#2360000
0!
0:
0;
#2370000
1!
1:
1;
1^
1<
0N
0?
0=
0O
1A
0@
0>
1B
1C
#2380000
0!
0:
0;
#2390000
1!
1:
1;
0^
1[
0\
0]
1T
0<
1N
1M
0D
0B
0A
1?
1=
1@
0=
1G
0E
1D
1B
1O
0C
1>
0@
0J
0H
0G
1E
0>
0F
1C
1Q
0K
1J
1H
0I
1F
1R
0Q
1K
0L
1I
0R
1S
1L
0S
#2400000
0!
0:
0;
#2410000
1!
1:
1;
1^
1<
0N
1=
0O
1>
#2420000
0!
0:
0;
#2430000
1!
1:
1;
0^
1]
0<
1N
0?
0=
1?
1=
1O
1@
0>
0@
1>
#2440000
0!
0:
0;
#2450000
1!
1:
1;
1^
1<
0N
0?
0=
0O
1@
0>
#2460000
0!
0:
0;
#2470000
1!
1:
1;
0^
1\
0]
0<
1N
1A
1?
1=
0@
0=
0D
0B
0A
1O
1@
1>
1G
0E
1D
1B
0>
0C
0J
0H
0G
1E
0F
1C
1Q
0K
1J
1H
0I
1F
1R
0Q
1K
0L
1I
0R
1S
1L
0S
#2480000
0!
0:
0;
#2490000
1!
1:
1;
1^
0T
1<
0N
1=
1U
0O
1>
#2500000
0!
0:
0;
#2510000
1!
1:
1;
0^
1]
1V
19
0<
1N
0?
0=
1*
1?
1=
1A
1O
0@
0>
0A
0D
0B
1@
1>
1D
1B
1G
0E
0C
0G
1E
0J
0H
1C
0F
1J
1H
1Q
0K
1F
0I
0Q
1K
1R
1I
0L
0R
1L
1S
0S
#2520000
0!
0:
0;
#2530000
1!
1:
1;
1^
1<
0N
0?
0=
0O
1A
0@
0>
0D
0B
1G
0E
0C
0J
0H
0F
1Q
0K
0I
1R
0L
1S
#2540000
0!
0:
0;
#2550000
1!
1:
1;
1W
0^
0X
0Y
0Z
0[
0\
0]
0R
1T
0<
1N
0M
0Q
1K
1J
1H
0G
1E
1D
1B
0A
1?
1=
1@
0=
1R
0K
0H
0E
0B
0S
1O
1L
1I
1F
1C
1>
0@
0>
1S
0L
0I
0F
0C
#2560000
0!
0:
0;
#2570000
1!
1:
1;
1^
1<
0N
1=
0O
1>
#2580000
0!
0:
0;
#2590000
1!
1:
1;
0^
1]
1P
0<
1N
0?
0=
1?
1=
1O
0>
1@
0@
1>
#2600000
0!
0:
0;
#2610000
1!
1:
1;
1^
0P
1<
0N
0?
0=
0O
1@
0>
#2620000
0!
0:
0;
#2630000
1!
1:
1;
0^
1\
0]
0<
1N
1A
1?
1=
0@
0=
1B
0A
1O
1@
1>
0B
0>
1C
0C
#2640000
0!
0:
0;
#2650000
1!
1:
1;
1^
0T
1<
0N
1=
0O
1>
#2660000
0!
0:
0;
#2670000
1!
1:
1;
0^
1]
0<
1N
0?
0=
1?
1=
1A
1O
0@
0>
0A
1B
1@
1>
0B
1C
0C
#2680000
0!
0:
0;
#2690000
1!
1:
1;
1^
1<
0N
0?
0=
0O
1A
0@
0>
1B
1C
#2700000
0!
0:
0;
#2710000
1!
1:
1;
0^
1[
0\
0]
1T
0<
1N
0D
0B
0A
1?
1=
1@
0=
1E
1D
1B
1O
0C
0@
1>
0E
0>
1F
1C
0F
#2720000
0!
0:
0;
#2730000
1!
1:
1;
1^
1<
0N
1=
0O
1>
#2740000
0!
0:
0;
#2750000
1!
1:
1;
0^
1]
1P
0<
1N
0?
0=
1?
1=
1O
0>
1@
0@
1>
#2760000
0!
0:
0;
#2770000
1!
1:
1;
1^
0P
1<
0N
0?
0=
0O
1@
0>
#2780000
0!
0:
0;
#2790000
1!
1:
1;
0^
1\
0]
0<
1N
1A
1?
1=
0@
0=
0D
0B
0A
1O
1@
1>
1E
1D
1B
0>
0C
0E
1F
1C
0F
#2800000
0!
0:
0;
#2810000
1!
1:
1;
1^
0T
1<
0N
1=
0O
1>
#2820000
0!
0:
0;
#2830000
1!
1:
1;
0^
1]
0<
1N
0?
0=
1?
1=
1A
1O
0@
0>
0A
0D
0B
1@
1>
1D
1B
1E
0C
0E
1C
1F
0F
#2840000
0!
0:
0;
#2850000
1!
1:
1;
1^
1<
0N
0?
0=
0O
1A
0@
0>
0D
0B
1E
0C
1F
#2860000
0!
0:
0;
#2870000
1!
1:
1;
0^
1Z
0[
0\
0]
1T
0<
1N
1G
0E
1D
1B
0A
1?
1=
1@
0=
1H
0G
1E
0B
1O
0F
1C
0@
1>
0H
0>
1I
1F
0C
0I
#2880000
0!
0:
0;
#2890000
1!
1:
1;
1^
1<
0N
1=
0O
1>
#2900000
0!
0:
0;
#2910000
1!
1:
1;
0^
1]
1P
0<
1N
0?
0=
1?
1=
1O
0>
1@
0@
1>
#2920000
0!
0:
0;
#2930000
1!
1:
1;
1^
0P
1<
0N
0?
0=
0O
1@
0>
#2940000
0!
0:
0;
#2950000
1!
1:
1;
0^
1\
0]
0<
1N
1A
1?
1=
0@
0=
1B
0A
1O
1@
1>
0B
0>
1C
0C
#2960000
0!
0:
0;
#2970000
1!
1:
1;
1^
0T
1<
0N
1=
0O
1>
#2980000
0!
0:
0;
#2990000
1!
1:
1;
0^
1]
0<
1N
0?
0=
1?
1=
1A
1O
0@
0>
0A
1B
1@
1>
0B
1C
0C
#3000000
0!
0:
0;
#3010000
1!
1:
1;
1^
1<
0N
0?
0=
0O
1A
0@
0>
1B
1C
#3020000
0!
0:
0;
#3030000
1!
1:
1;
0^
1[
0\
0]
1T
0<
1N
0D
0B
0A
1?
1=
1@
0=
1G
0E
1D
1B
1O
0C
0@
1>
1H
0G
1E
0>
0F
1C
0H
1I
1F
0I
#3040000
0!
0:
0;
#3050000
1!
1:
1;
1^
1<
0N
1=
0O
1>
#3060000
0!
0:
0;
#3070000
1!
1:
1;
0^
1]
1P
0<
1N
0?
0=
1?
1=
1O
0>
1@
0@
1>
#3080000
0!
0:
0;
#3090000
1!
1:
1;
1^
0P
1<
0N
0?
0=
0O
1@
0>
#3100000
0!
0:
0;
#3110000
1!
1:
1;
0^
1\
0]
0<
1N
1A
1?
1=
0@
0=
0D
0B
0A
1O
1@
1>
1G
0E
1D
1B
0>
0C
1H
0G
1E
0F
1C
0H
1I
1F
0I
#3120000
0!
0:
0;
#3130000
1!
1:
1;
1^
0T
1<
0N
1=
0O
1>
#3140000
0!
0:
0;
#3150000
1!
1:
1;
0^
1]
0<
1N
0?
0=
1?
1=
1A
1O
0@
0>
0A
0D
0B
1@
1>
1D
1B
1G
0E
0C
0G
1E
1H
1C
0F
0H
1F
1I
0I
#3160000
0!
0:
0;
#3170000
1!
1:
1;
1^
1<
0N
0?
0=
0O
1A
0@
0>
0D
0B
1G
0E
0C
1H
0F
1I
#3180000
0!
0:
0;
#3190000
1!
1:
1;
0^
1Y
0Z
0[
0\
0]
1T
0<
1N
0J
0H
0G
1E
1D
1B
0A
1?
1=
1@
0=
1K
1J
1H
0E
0B
1O
0I
1F
1C
0@
1>
0K
0>
1L
1I
0F
0C
0L
#3200000
0!
0:
0;
#3210000
1!
1:
1;
1^
1<
0N
1=
0O
1>
#3220000
0!
0:
0;
#3230000
1!
1:
1;
0^
1]
1P
0<
1N
0?
0=
1?
1=
1O
0>
1@
0@
1>
#3240000
0!
0:
0;
#3250000
1!
1:
1;
1^
0P
1<
0N
0?
0=
0O
1@
0>
#3260000
0!
0:
0;
#3270000
1!
1:
1;
0^
1\
0]
0<
1N
1A
1?
1=
0@
0=
1B
0A
1O
1@
1>
0B
0>
1C
0C
#3280000
0!
0:
0;
#3290000
1!
1:
1;
1^
0T
1<
0N
1=
0O
1>
#3300000
0!
0:
0;
#3310000
1!
1:
1;
0^
1]
0<
1N
0?
0=
1?
1=
1A
1O
0@
0>
0A
1B
1@
1>
0B
1C
0C
#3320000
0!
0:
0;
#3330000
1!
1:
1;
1^
1<
0N
0?
0=
0O
1A
0@
0>
1B
1C
#3340000
0!
0:
0;
#3350000
1!
1:
1;
0^
1[
0\
0]
1T
0<
1N
0D
0B
0A
1?
1=
1@
0=
1E
1D
1B
1O
0C
0@
1>
0E
0>
1F
1C
0F
#3360000
0!
0:
0;
#3370000
1!
1:
1;
1^
1<
0N
1=
0O
1>
#3380000
0!
0:
0;
#3390000
1!
1:
1;
0^
1]
1P
0<
1N
0?
0=
1?
1=
1O
0>
1@
0@
1>
#3400000
0!
0:
0;
#3410000
1!
1:
1;
1^
0P
1<
0N
0?
0=
0O
1@
0>
#3420000
0!
0:
0;
#3430000
1!
1:
1;
0^
1\
0]
0<
1N
1A
1?
1=
0@
0=
0D
0B
0A
1O
1@
1>
1E
1D
1B
0>
0C
0E
1F
1C
0F
#3440000
0!
0:
0;
#3450000
1!
1:
1;
1^
0T
1<
0N
1=
0O
1>
#3460000
0!
0:
0;
#3470000
1!
1:
1;
0^
1]
0<
1N
0?
0=
1?
1=
1A
1O
0@
0>
0A
0D
0B
1@
1>
1D
1B
1E
0C
0E
1C
1F
0F
#3480000
0!
0:
0;
#3490000
1!
1:
1;
1^
1<
0N
0?
0=
0O
1A
0@
0>
0D
0B
1E
0C
1F
#3500000
0!
0:
0;
